{
    "select" : "SELECT * from userdetails",
    "add" : "INSERT into userdetails(name,email,mobile,doj,job,location,countrycode) VALUES ($1,$2,$3,$4,$5,$6,$7)",
    "update" : "UPDATE userdetails SET name=($1),email=($2),mobile=($3),doj=($4),job=($5),location=($6),countrycode=($7) WHERE email=($8)",
    "delete" : "DELETE from userdetails WHERE email=($1)"
}